{
  "$async": true,
  "type": "object",
  "additionalProperties": true,
  "required": [
    "habits"
  ],
  "properties": {
    "habits": {
      "type": "array",
      "items": {
        "$async": true,
        "type": "object",
        "additionalProperties": true,
        "required": [
          "doctor_id",
          "title",
          "type"
        ],
        "properties": {
          "doctor_id": {
            "type": "number"
          },
          "title": {
            "type": "string"
          },
          "type": {
            "type": "string",
            "enum": [
              "allergy",
              "lifestyle"
            ]
          }
        }
      }

    }
  }
}
