{
  "$async": true,
  "type": "object",
  "required": [
    "name",
    "mobile_no",
    "address",
    "gender",
    "age"
  ],
  "properties": {
    "name": {
      "type": [
        "string",
        "null"
      ]
    },
    "mobile_no": {
      "type": [
        "string",
        "null"
      ],
      "pattern": "^[0][1-9]\\d{9}$|^[1-9]\\d{9}$"
    },
    "address": {
      "type": [
        "string",
        "null"
      ]
    },
    "gender": {
      "type": [
        "string",
        "null"
      ]
    },
    "age": {
      "type": [
        "number",
        "null"
      ]
    }
  }
}
