{
  "$async": true,
  "type": "object",
  "additionalProperties": true,
  "required": [],
  "properties": {
    "clinic_id": {
      "type": "number"
    },
    "name": {
      "type": "string"
    },
    "mobile_no": {
      "type": "string",
      "pattern": "^[0][1-9]\\d{9}$|^[1-9]\\d{9}$"
    },
    "email": {
      "type": "string",
      "pattern": "^(([^<>()\\[\\]\\.,;:\\s@\\\"]+(\\.[^<>()\\[\\]\\.,;:\\s@\\\"]+)*)|(\\\".+\\\"))@(([^<>()[\\]\\.,;:\\s@\\\"]+\\.)+[^<>()[\\]\\.,;:\\s@\\\"]{2,})$"
    }
  }
}
