{
  "$async": true,
  "type": "object",
  "additionalProperties": true,
  "required": [
    "patient_visit_id",
    "feedback"
  ],
  "properties": {
    "patient_visit_id": {
      "type": "number"
    },
    "feedback": {
      "type": "array",
      "items": {
        "type": "object",
        "required": [
          "question",
          "option"
        ],
        "properties": {
          "question": {
            "type": "string"
          },
          "option": {
            "type": "string"
          },
          "medicine": {
            "type": "array",
            "items": {
              "type": "object",
              "required": [
                "title",
                "dose",
                "unit",
                "route",
                "frequency",
                "direction",
                "duration"
              ]
            }
          }
        }
      }
    }
  }
}
